<?xml version="1.0" encoding="utf-8"?>
<!DOCTYPE eagle SYSTEM "eagle.dtd">
<eagle version="8.3.1">
<drawing>
<settings>
<setting alwaysvectorfont="no"/>
<setting verticaltext="up"/>
</settings>
<grid distance="50" unitdist="mil" unit="mil" style="lines" multiple="1" display="yes" altdistance="12.5" altunitdist="mil" altunit="mil"/>
<layers>
<layer number="1" name="Top" color="4" fill="1" visible="yes" active="yes"/>
<layer number="2" name="Route2" color="1" fill="3" visible="no" active="yes"/>
<layer number="3" name="Route3" color="4" fill="3" visible="no" active="yes"/>
<layer number="4" name="Route4" color="1" fill="4" visible="no" active="yes"/>
<layer number="5" name="Route5" color="4" fill="4" visible="no" active="yes"/>
<layer number="6" name="Route6" color="1" fill="8" visible="no" active="yes"/>
<layer number="7" name="Route7" color="4" fill="8" visible="no" active="yes"/>
<layer number="8" name="Route8" color="1" fill="2" visible="no" active="yes"/>
<layer number="9" name="Route9" color="4" fill="2" visible="no" active="yes"/>
<layer number="10" name="Route10" color="1" fill="7" visible="no" active="yes"/>
<layer number="11" name="Route11" color="4" fill="7" visible="no" active="yes"/>
<layer number="12" name="Route12" color="1" fill="5" visible="no" active="yes"/>
<layer number="13" name="Route13" color="4" fill="5" visible="no" active="yes"/>
<layer number="14" name="Route14" color="1" fill="6" visible="no" active="yes"/>
<layer number="15" name="Route15" color="4" fill="6" visible="no" active="yes"/>
<layer number="16" name="Bottom" color="1" fill="1" visible="yes" active="yes"/>
<layer number="17" name="Pads" color="2" fill="1" visible="yes" active="yes"/>
<layer number="18" name="Vias" color="2" fill="1" visible="yes" active="yes"/>
<layer number="19" name="Unrouted" color="6" fill="1" visible="yes" active="yes"/>
<layer number="20" name="Dimension" color="24" fill="1" visible="yes" active="yes"/>
<layer number="21" name="tPlace" color="7" fill="1" visible="yes" active="yes"/>
<layer number="22" name="bPlace" color="7" fill="1" visible="yes" active="yes"/>
<layer number="23" name="tOrigins" color="15" fill="1" visible="yes" active="yes"/>
<layer number="24" name="bOrigins" color="15" fill="1" visible="yes" active="yes"/>
<layer number="25" name="tNames" color="7" fill="1" visible="yes" active="yes"/>
<layer number="26" name="bNames" color="7" fill="1" visible="yes" active="yes"/>
<layer number="27" name="tValues" color="7" fill="1" visible="yes" active="yes"/>
<layer number="28" name="bValues" color="7" fill="1" visible="yes" active="yes"/>
<layer number="29" name="tStop" color="7" fill="3" visible="no" active="yes"/>
<layer number="30" name="bStop" color="7" fill="6" visible="no" active="yes"/>
<layer number="31" name="tCream" color="7" fill="4" visible="no" active="yes"/>
<layer number="32" name="bCream" color="7" fill="5" visible="no" active="yes"/>
<layer number="33" name="tFinish" color="6" fill="3" visible="no" active="yes"/>
<layer number="34" name="bFinish" color="6" fill="6" visible="no" active="yes"/>
<layer number="35" name="tGlue" color="7" fill="4" visible="no" active="yes"/>
<layer number="36" name="bGlue" color="7" fill="5" visible="no" active="yes"/>
<layer number="37" name="tTest" color="7" fill="1" visible="no" active="yes"/>
<layer number="38" name="bTest" color="7" fill="1" visible="no" active="yes"/>
<layer number="39" name="tKeepout" color="4" fill="11" visible="yes" active="yes"/>
<layer number="40" name="bKeepout" color="1" fill="11" visible="yes" active="yes"/>
<layer number="41" name="tRestrict" color="4" fill="10" visible="yes" active="yes"/>
<layer number="42" name="bRestrict" color="1" fill="10" visible="yes" active="yes"/>
<layer number="43" name="vRestrict" color="2" fill="10" visible="yes" active="yes"/>
<layer number="44" name="Drills" color="7" fill="1" visible="no" active="yes"/>
<layer number="45" name="Holes" color="7" fill="1" visible="no" active="yes"/>
<layer number="46" name="Milling" color="3" fill="1" visible="no" active="yes"/>
<layer number="47" name="Measures" color="7" fill="1" visible="no" active="yes"/>
<layer number="48" name="Document" color="7" fill="1" visible="yes" active="yes"/>
<layer number="49" name="Reference" color="7" fill="1" visible="yes" active="yes"/>
<layer number="50" name="dxf" color="7" fill="1" visible="no" active="no"/>
<layer number="51" name="tDocu" color="7" fill="1" visible="yes" active="yes"/>
<layer number="52" name="bDocu" color="7" fill="1" visible="yes" active="yes"/>
<layer number="53" name="tGND_GNDA" color="7" fill="9" visible="no" active="no"/>
<layer number="54" name="bGND_GNDA" color="1" fill="9" visible="no" active="no"/>
<layer number="56" name="wert" color="7" fill="1" visible="no" active="no"/>
<layer number="57" name="tCAD" color="7" fill="1" visible="no" active="no"/>
<layer number="59" name="tCarbon" color="7" fill="1" visible="no" active="no"/>
<layer number="60" name="bCarbon" color="7" fill="1" visible="no" active="no"/>
<layer number="90" name="Modules" color="5" fill="1" visible="yes" active="yes"/>
<layer number="91" name="Nets" color="2" fill="1" visible="yes" active="yes"/>
<layer number="92" name="Busses" color="1" fill="1" visible="yes" active="yes"/>
<layer number="93" name="Pins" color="2" fill="1" visible="yes" active="yes"/>
<layer number="94" name="Symbols" color="4" fill="1" visible="yes" active="yes"/>
<layer number="95" name="Names" color="7" fill="1" visible="yes" active="yes"/>
<layer number="96" name="Values" color="7" fill="1" visible="yes" active="yes"/>
<layer number="97" name="Info" color="7" fill="1" visible="yes" active="yes"/>
<layer number="98" name="Guide" color="6" fill="1" visible="yes" active="yes"/>
<layer number="99" name="SpiceOrder" color="7" fill="1" visible="yes" active="yes"/>
<layer number="100" name="Muster" color="7" fill="1" visible="no" active="no"/>
<layer number="101" name="Patch_Top" color="12" fill="4" visible="yes" active="yes"/>
<layer number="102" name="Vscore" color="7" fill="1" visible="yes" active="yes"/>
<layer number="103" name="tMap" color="7" fill="1" visible="yes" active="yes"/>
<layer number="104" name="Name" color="16" fill="1" visible="yes" active="yes"/>
<layer number="105" name="tPlate" color="7" fill="1" visible="yes" active="yes"/>
<layer number="106" name="bPlate" color="7" fill="1" visible="yes" active="yes"/>
<layer number="107" name="Crop" color="7" fill="1" visible="yes" active="yes"/>
<layer number="108" name="tplace-old" color="10" fill="1" visible="yes" active="yes"/>
<layer number="109" name="ref-old" color="11" fill="1" visible="yes" active="yes"/>
<layer number="110" name="fp0" color="7" fill="1" visible="yes" active="yes"/>
<layer number="111" name="LPC17xx" color="7" fill="1" visible="yes" active="yes"/>
<layer number="112" name="tSilk" color="7" fill="1" visible="yes" active="yes"/>
<layer number="113" name="IDFDebug" color="7" fill="1" visible="yes" active="yes"/>
<layer number="114" name="Badge_Outline" color="7" fill="1" visible="yes" active="yes"/>
<layer number="115" name="ReferenceISLANDS" color="7" fill="1" visible="yes" active="yes"/>
<layer number="116" name="Patch_BOT" color="9" fill="4" visible="yes" active="yes"/>
<layer number="118" name="Rect_Pads" color="7" fill="1" visible="yes" active="yes"/>
<layer number="121" name="_tsilk" color="7" fill="1" visible="yes" active="yes"/>
<layer number="122" name="_bsilk" color="7" fill="1" visible="yes" active="yes"/>
<layer number="123" name="tTestmark" color="7" fill="1" visible="yes" active="yes"/>
<layer number="124" name="bTestmark" color="7" fill="1" visible="yes" active="yes"/>
<layer number="125" name="_tNames" color="7" fill="1" visible="yes" active="yes"/>
<layer number="126" name="_bNames" color="7" fill="1" visible="yes" active="yes"/>
<layer number="127" name="_tValues" color="7" fill="1" visible="yes" active="yes"/>
<layer number="128" name="_bValues" color="7" fill="1" visible="yes" active="yes"/>
<layer number="129" name="Mask" color="7" fill="1" visible="yes" active="yes"/>
<layer number="131" name="tAdjust" color="7" fill="1" visible="yes" active="yes"/>
<layer number="132" name="bAdjust" color="7" fill="1" visible="yes" active="yes"/>
<layer number="144" name="Drill_legend" color="7" fill="1" visible="yes" active="yes"/>
<layer number="150" name="Notes" color="7" fill="1" visible="yes" active="yes"/>
<layer number="151" name="HeatSink" color="7" fill="1" visible="yes" active="yes"/>
<layer number="152" name="_bDocu" color="7" fill="1" visible="yes" active="yes"/>
<layer number="153" name="FabDoc1" color="7" fill="1" visible="yes" active="yes"/>
<layer number="154" name="FabDoc2" color="7" fill="1" visible="yes" active="yes"/>
<layer number="155" name="FabDoc3" color="7" fill="1" visible="yes" active="yes"/>
<layer number="199" name="Contour" color="7" fill="1" visible="yes" active="yes"/>
<layer number="200" name="200bmp" color="1" fill="10" visible="yes" active="yes"/>
<layer number="201" name="201bmp" color="2" fill="10" visible="yes" active="yes"/>
<layer number="202" name="202bmp" color="3" fill="10" visible="yes" active="yes"/>
<layer number="203" name="203bmp" color="4" fill="10" visible="yes" active="yes"/>
<layer number="204" name="204bmp" color="5" fill="10" visible="yes" active="yes"/>
<layer number="205" name="205bmp" color="6" fill="10" visible="yes" active="yes"/>
<layer number="206" name="206bmp" color="7" fill="10" visible="yes" active="yes"/>
<layer number="207" name="207bmp" color="8" fill="10" visible="yes" active="yes"/>
<layer number="208" name="208bmp" color="9" fill="10" visible="yes" active="yes"/>
<layer number="209" name="209bmp" color="7" fill="1" visible="yes" active="yes"/>
<layer number="210" name="210bmp" color="7" fill="1" visible="yes" active="yes"/>
<layer number="211" name="211bmp" color="7" fill="1" visible="yes" active="yes"/>
<layer number="212" name="212bmp" color="7" fill="1" visible="yes" active="yes"/>
<layer number="213" name="213bmp" color="7" fill="1" visible="yes" active="yes"/>
<layer number="214" name="214bmp" color="7" fill="1" visible="yes" active="yes"/>
<layer number="215" name="215bmp" color="7" fill="1" visible="yes" active="yes"/>
<layer number="216" name="216bmp" color="7" fill="1" visible="yes" active="yes"/>
<layer number="217" name="217bmp" color="18" fill="1" visible="no" active="no"/>
<layer number="218" name="218bmp" color="19" fill="1" visible="no" active="no"/>
<layer number="219" name="219bmp" color="20" fill="1" visible="no" active="no"/>
<layer number="220" name="220bmp" color="21" fill="1" visible="no" active="no"/>
<layer number="221" name="221bmp" color="22" fill="1" visible="no" active="no"/>
<layer number="222" name="222bmp" color="23" fill="1" visible="no" active="no"/>
<layer number="223" name="223bmp" color="24" fill="1" visible="no" active="no"/>
<layer number="224" name="224bmp" color="25" fill="1" visible="no" active="no"/>
<layer number="225" name="225bmp" color="7" fill="1" visible="yes" active="yes"/>
<layer number="226" name="226bmp" color="7" fill="1" visible="yes" active="yes"/>
<layer number="227" name="227bmp" color="7" fill="1" visible="yes" active="yes"/>
<layer number="228" name="228bmp" color="7" fill="1" visible="yes" active="yes"/>
<layer number="229" name="229bmp" color="7" fill="1" visible="yes" active="yes"/>
<layer number="230" name="230bmp" color="7" fill="1" visible="yes" active="yes"/>
<layer number="231" name="231bmp" color="7" fill="1" visible="yes" active="yes"/>
<layer number="248" name="Housing" color="7" fill="1" visible="yes" active="yes"/>
<layer number="249" name="Edge" color="7" fill="1" visible="yes" active="yes"/>
<layer number="250" name="Descript" color="3" fill="1" visible="no" active="no"/>
<layer number="251" name="SMDround" color="12" fill="11" visible="no" active="no"/>
<layer number="254" name="cooling" color="7" fill="1" visible="yes" active="yes"/>
<layer number="255" name="routoute" color="7" fill="1" visible="yes" active="yes"/>
</layers>
<library>
<packages>
<package name="TQFP100">
<description>&lt;b&gt;100-lead Thin Quad Flat Pack Package Outline&lt;/b&gt;</description>
<smd name="1" x="-8" y="6" dx="1.5" dy="0.3" layer="1"/>
<smd name="2" x="-8" y="5.5" dx="1.5" dy="0.3" layer="1"/>
<smd name="3" x="-8" y="5" dx="1.5" dy="0.3" layer="1"/>
<smd name="4" x="-8" y="4.5" dx="1.5" dy="0.3" layer="1"/>
<smd name="5" x="-8" y="4" dx="1.5" dy="0.3" layer="1"/>
<smd name="6" x="-8" y="3.5" dx="1.5" dy="0.3" layer="1"/>
<smd name="7" x="-8" y="3" dx="1.5" dy="0.3" layer="1"/>
<smd name="8" x="-8" y="2.5" dx="1.5" dy="0.3" layer="1"/>
<smd name="9" x="-8" y="2" dx="1.5" dy="0.3" layer="1"/>
<smd name="10" x="-8" y="1.5" dx="1.5" dy="0.3" layer="1"/>
<smd name="11" x="-8" y="1" dx="1.5" dy="0.3" layer="1"/>
<smd name="12" x="-8" y="0.5" dx="1.5" dy="0.3" layer="1"/>
<smd name="13" x="-8" y="0" dx="1.5" dy="0.3" layer="1"/>
<smd name="14" x="-8" y="-0.5" dx="1.5" dy="0.3" layer="1"/>
<smd name="15" x="-8" y="-1" dx="1.5" dy="0.3" layer="1"/>
<smd name="16" x="-8" y="-1.5" dx="1.5" dy="0.3" layer="1"/>
<smd name="17" x="-8" y="-2" dx="1.5" dy="0.3" layer="1"/>
<smd name="18" x="-8" y="-2.5" dx="1.5" dy="0.3" layer="1"/>
<smd name="19" x="-8" y="-3" dx="1.5" dy="0.3" layer="1"/>
<smd name="20" x="-8" y="-3.5" dx="1.5" dy="0.3" layer="1"/>
<smd name="21" x="-8" y="-4" dx="1.5" dy="0.3" layer="1"/>
<smd name="22" x="-8" y="-4.5" dx="1.5" dy="0.3" layer="1"/>
<smd name="23" x="-8" y="-5" dx="1.5" dy="0.3" layer="1"/>
<smd name="24" x="-8" y="-5.5" dx="1.5" dy="0.3" layer="1"/>
<smd name="25" x="-8" y="-6" dx="1.5" dy="0.3" layer="1"/>
<smd name="26" x="-6" y="-8" dx="0.3" dy="1.5" layer="1"/>
<smd name="27" x="-5.5" y="-8" dx="0.3" dy="1.5" layer="1"/>
<smd name="28" x="-5" y="-8" dx="0.3" dy="1.5" layer="1"/>
<smd name="29" x="-4.5" y="-8" dx="0.3" dy="1.5" layer="1"/>
<smd name="30" x="-4" y="-8" dx="0.3" dy="1.5" layer="1"/>
<smd name="31" x="-3.5" y="-8" dx="0.3" dy="1.5" layer="1"/>
<smd name="32" x="-3" y="-8" dx="0.3" dy="1.5" layer="1"/>
<smd name="33" x="-2.5" y="-8" dx="0.3" dy="1.5" layer="1"/>
<smd name="34" x="-2" y="-8" dx="0.3" dy="1.5" layer="1"/>
<smd name="35" x="-1.5" y="-8" dx="0.3" dy="1.5" layer="1"/>
<smd name="36" x="-1" y="-8" dx="0.3" dy="1.5" layer="1"/>
<smd name="37" x="-0.5" y="-8" dx="0.3" dy="1.5" layer="1"/>
<smd name="38" x="0" y="-8" dx="0.3" dy="1.5" layer="1"/>
<smd name="39" x="0.5" y="-8" dx="0.3" dy="1.5" layer="1"/>
<smd name="40" x="1" y="-8" dx="0.3" dy="1.5" layer="1"/>
<smd name="41" x="1.5" y="-8" dx="0.3" dy="1.5" layer="1"/>
<smd name="42" x="2" y="-8" dx="0.3" dy="1.5" layer="1"/>
<smd name="43" x="2.5" y="-8" dx="0.3" dy="1.5" layer="1"/>
<smd name="44" x="3" y="-8" dx="0.3" dy="1.5" layer="1"/>
<smd name="45" x="3.5" y="-8" dx="0.3" dy="1.5" layer="1"/>
<smd name="46" x="4" y="-8" dx="0.3" dy="1.5" layer="1"/>
<smd name="47" x="4.5" y="-8" dx="0.3" dy="1.5" layer="1"/>
<smd name="48" x="5" y="-8" dx="0.3" dy="1.5" layer="1"/>
<smd name="49" x="5.5" y="-8" dx="0.3" dy="1.5" layer="1"/>
<smd name="50" x="6" y="-8" dx="0.3" dy="1.5" layer="1"/>
<smd name="51" x="8" y="-6" dx="1.5" dy="0.3" layer="1"/>
<smd name="52" x="8" y="-5.5" dx="1.5" dy="0.3" layer="1"/>
<smd name="53" x="8" y="-5" dx="1.5" dy="0.3" layer="1"/>
<smd name="54" x="8" y="-4.5" dx="1.5" dy="0.3" layer="1"/>
<smd name="55" x="8" y="-4" dx="1.5" dy="0.3" layer="1"/>
<smd name="56" x="8" y="-3.5" dx="1.5" dy="0.3" layer="1"/>
<smd name="57" x="8" y="-3" dx="1.5" dy="0.3" layer="1"/>
<smd name="58" x="8" y="-2.5" dx="1.5" dy="0.3" layer="1"/>
<smd name="59" x="8" y="-2" dx="1.5" dy="0.3" layer="1"/>
<smd name="60" x="8" y="-1.5" dx="1.5" dy="0.3" layer="1"/>
<smd name="61" x="8" y="-1" dx="1.5" dy="0.3" layer="1"/>
<smd name="62" x="8" y="-0.5" dx="1.5" dy="0.3" layer="1"/>
<smd name="63" x="8" y="0" dx="1.5" dy="0.3" layer="1"/>
<smd name="64" x="8" y="0.5" dx="1.5" dy="0.3" layer="1"/>
<smd name="65" x="8" y="1" dx="1.5" dy="0.3" layer="1"/>
<smd name="66" x="8" y="1.5" dx="1.5" dy="0.3" layer="1"/>
<smd name="67" x="8" y="2" dx="1.5" dy="0.3" layer="1"/>
<smd name="68" x="8" y="2.5" dx="1.5" dy="0.3" layer="1"/>
<smd name="69" x="8" y="3" dx="1.5" dy="0.3" layer="1"/>
<smd name="70" x="8" y="3.5" dx="1.5" dy="0.3" layer="1"/>
<smd name="71" x="8" y="4" dx="1.5" dy="0.3" layer="1"/>
<smd name="72" x="8" y="4.5" dx="1.5" dy="0.3" layer="1"/>
<smd name="73" x="8" y="5" dx="1.5" dy="0.3" layer="1"/>
<smd name="74" x="8" y="5.5" dx="1.5" dy="0.3" layer="1"/>
<smd name="75" x="8" y="6" dx="1.5" dy="0.3" layer="1"/>
<smd name="76" x="6" y="8" dx="0.3" dy="1.5" layer="1"/>
<smd name="77" x="5.5" y="8" dx="0.3" dy="1.5" layer="1"/>
<smd name="78" x="5" y="8" dx="0.3" dy="1.5" layer="1"/>
<smd name="79" x="4.5" y="8" dx="0.3" dy="1.5" layer="1"/>
<smd name="80" x="4" y="8" dx="0.3" dy="1.5" layer="1"/>
<smd name="81" x="3.5" y="8" dx="0.3" dy="1.5" layer="1"/>
<smd name="82" x="3" y="8" dx="0.3" dy="1.5" layer="1"/>
<smd name="83" x="2.5" y="8" dx="0.3" dy="1.5" layer="1"/>
<smd name="84" x="2" y="8" dx="0.3" dy="1.5" layer="1"/>
<smd name="85" x="1.5" y="8" dx="0.3" dy="1.5" layer="1"/>
<smd name="86" x="1" y="8" dx="0.3" dy="1.5" layer="1"/>
<smd name="87" x="0.5" y="8" dx="0.3" dy="1.5" layer="1"/>
<smd name="88" x="0" y="8" dx="0.3" dy="1.5" layer="1"/>
<smd name="89" x="-0.5" y="8" dx="0.3" dy="1.5" layer="1"/>
<smd name="90" x="-1" y="8" dx="0.3" dy="1.5" layer="1"/>
<smd name="91" x="-1.5" y="8" dx="0.3" dy="1.5" layer="1"/>
<smd name="92" x="-2" y="8" dx="0.3" dy="1.5" layer="1"/>
<smd name="93" x="-2.5" y="8" dx="0.3" dy="1.5" layer="1"/>
<smd name="94" x="-3" y="8" dx="0.3" dy="1.5" layer="1"/>
<smd name="95" x="-3.5" y="8" dx="0.3" dy="1.5" layer="1"/>
<smd name="96" x="-4" y="8" dx="0.3" dy="1.5" layer="1"/>
<smd name="97" x="-4.5" y="8" dx="0.3" dy="1.5" layer="1"/>
<smd name="98" x="-5" y="8" dx="0.3" dy="1.5" layer="1"/>
<smd name="99" x="-5.5" y="8" dx="0.3" dy="1.5" layer="1"/>
<smd name="100" x="-6" y="8" dx="0.3" dy="1.5" layer="1"/>
<text x="0" y="9.525" size="0.6096" layer="25" ratio="20" align="bottom-center">&gt;NAME</text>
<text x="0" y="-10.16" size="0.6096" layer="27" ratio="20" align="bottom-center">&gt;VALUE</text>
<wire x1="-6.985" y1="-6.985" x2="-6.985" y2="6.35" width="0.127" layer="21"/>
<wire x1="-6.985" y1="6.35" x2="-6.35" y2="6.985" width="0.127" layer="21"/>
<wire x1="-6.35" y1="6.985" x2="6.985" y2="6.985" width="0.127" layer="21"/>
<wire x1="6.985" y1="6.985" x2="6.985" y2="-6.985" width="0.127" layer="21"/>
<wire x1="6.985" y1="-6.985" x2="-6.985" y2="-6.985" width="0.127" layer="21"/>
<circle x="-5.715" y="5.715" radius="0.3175" width="0.127" layer="21"/>
</package>
</packages>
<symbols>
<symbol name="ATSAME54N20A-PORTA">
<pin name="PA00" x="15.24" y="35.56" length="middle" rot="R180"/>
<pin name="PA01" x="15.24" y="33.02" length="middle" rot="R180"/>
<pin name="PA02" x="15.24" y="30.48" length="middle" rot="R180"/>
<pin name="PA03" x="15.24" y="27.94" length="middle" rot="R180"/>
<pin name="PA04" x="15.24" y="25.4" length="middle" rot="R180"/>
<pin name="PA05" x="15.24" y="22.86" length="middle" rot="R180"/>
<pin name="PA06" x="15.24" y="20.32" length="middle" rot="R180"/>
<pin name="PA07" x="15.24" y="17.78" length="middle" rot="R180"/>
<pin name="PA08" x="15.24" y="15.24" length="middle" rot="R180"/>
<pin name="PA09" x="15.24" y="12.7" length="middle" rot="R180"/>
<pin name="PA10" x="15.24" y="10.16" length="middle" rot="R180"/>
<pin name="PA11" x="15.24" y="7.62" length="middle" rot="R180"/>
<pin name="PA12" x="15.24" y="5.08" length="middle" rot="R180"/>
<pin name="PA13" x="15.24" y="2.54" length="middle" rot="R180"/>
<pin name="PA14" x="15.24" y="0" length="middle" rot="R180"/>
<pin name="PA15" x="15.24" y="-2.54" length="middle" rot="R180"/>
<pin name="PA16" x="15.24" y="-5.08" length="middle" rot="R180"/>
<pin name="PA17" x="15.24" y="-7.62" length="middle" rot="R180"/>
<pin name="PA18" x="15.24" y="-10.16" length="middle" rot="R180"/>
<pin name="PA19" x="15.24" y="-12.7" length="middle" rot="R180"/>
<pin name="PA20" x="15.24" y="-15.24" length="middle" rot="R180"/>
<pin name="PA21" x="15.24" y="-17.78" length="middle" rot="R180"/>
<pin name="PA22" x="15.24" y="-20.32" length="middle" rot="R180"/>
<pin name="PA23" x="15.24" y="-22.86" length="middle" rot="R180"/>
<pin name="PA24" x="15.24" y="-25.4" length="middle" rot="R180"/>
<pin name="PA25" x="15.24" y="-27.94" length="middle" rot="R180"/>
<pin name="PA27" x="15.24" y="-30.48" length="middle" rot="R180"/>
<pin name="PA30" x="15.24" y="-33.02" length="middle" rot="R180"/>
<pin name="PA31" x="15.24" y="-35.56" length="middle" rot="R180"/>
<wire x1="0" y1="38.1" x2="10.16" y2="38.1" width="0.254" layer="94"/>
<wire x1="10.16" y1="38.1" x2="10.16" y2="-38.1" width="0.254" layer="94"/>
<wire x1="10.16" y1="-38.1" x2="0" y2="-38.1" width="0.254" layer="94"/>
<wire x1="0" y1="-38.1" x2="0" y2="38.1" width="0.254" layer="94"/>
<text x="0" y="40.64" size="1.27" layer="95" align="top-left">&gt;NAME</text>
<text x="10.16" y="-40.64" size="1.27" layer="96" align="bottom-right">&gt;VALUE</text>
</symbol>
<symbol name="ATSAME54N20A-PORTB">
<pin name="PB00" x="15.24" y="33.02" length="middle" rot="R180"/>
<pin name="PB01" x="15.24" y="30.48" length="middle" rot="R180"/>
<pin name="PB02" x="15.24" y="27.94" length="middle" rot="R180"/>
<pin name="PB03" x="15.24" y="25.4" length="middle" rot="R180"/>
<pin name="PB04" x="15.24" y="22.86" length="middle" rot="R180"/>
<pin name="PB05" x="15.24" y="20.32" length="middle" rot="R180"/>
<pin name="PB06" x="15.24" y="17.78" length="middle" rot="R180"/>
<pin name="PB07" x="15.24" y="15.24" length="middle" rot="R180"/>
<pin name="PB08" x="15.24" y="12.7" length="middle" rot="R180"/>
<pin name="PB09" x="15.24" y="10.16" length="middle" rot="R180"/>
<pin name="PB10" x="15.24" y="7.62" length="middle" rot="R180"/>
<pin name="PB11" x="15.24" y="5.08" length="middle" rot="R180"/>
<pin name="PB12" x="15.24" y="2.54" length="middle" rot="R180"/>
<pin name="PB13" x="15.24" y="0" length="middle" rot="R180"/>
<pin name="PB14" x="15.24" y="-2.54" length="middle" rot="R180"/>
<pin name="PB15" x="15.24" y="-5.08" length="middle" rot="R180"/>
<pin name="PB16" x="15.24" y="-7.62" length="middle" rot="R180"/>
<pin name="PB17" x="15.24" y="-10.16" length="middle" rot="R180"/>
<pin name="PB18" x="15.24" y="-12.7" length="middle" rot="R180"/>
<pin name="PB19" x="15.24" y="-15.24" length="middle" rot="R180"/>
<pin name="PB20" x="15.24" y="-17.78" length="middle" rot="R180"/>
<pin name="PB21" x="15.24" y="-20.32" length="middle" rot="R180"/>
<pin name="PB22" x="15.24" y="-22.86" length="middle" rot="R180"/>
<pin name="PB23" x="15.24" y="-25.4" length="middle" rot="R180"/>
<pin name="PB24" x="15.24" y="-27.94" length="middle" rot="R180"/>
<pin name="PB25" x="15.24" y="-30.48" length="middle" rot="R180"/>
<pin name="PB30" x="15.24" y="-33.02" length="middle" rot="R180"/>
<pin name="PB31" x="15.24" y="-35.56" length="middle" rot="R180"/>
<wire x1="0" y1="35.56" x2="10.16" y2="35.56" width="0.254" layer="94"/>
<wire x1="10.16" y1="35.56" x2="10.16" y2="-38.1" width="0.254" layer="94"/>
<wire x1="10.16" y1="-38.1" x2="0" y2="-38.1" width="0.254" layer="94"/>
<wire x1="0" y1="-38.1" x2="0" y2="35.56" width="0.254" layer="94"/>
<text x="0" y="38.1" size="1.27" layer="95" align="top-left">&gt;NAME</text>
<text x="10.16" y="-40.64" size="1.27" layer="96" align="bottom-right">&gt;VALUE</text>
</symbol>
<symbol name="ATSAME54N20A-PORTC">
<pin name="PC00" x="15.24" y="30.48" length="middle" rot="R180"/>
<pin name="PC01" x="15.24" y="27.94" length="middle" rot="R180"/>
<pin name="PC02" x="15.24" y="25.4" length="middle" rot="R180"/>
<pin name="PC03" x="15.24" y="22.86" length="middle" rot="R180"/>
<pin name="PC05" x="15.24" y="20.32" length="middle" rot="R180"/>
<pin name="PC06" x="15.24" y="17.78" length="middle" rot="R180"/>
<pin name="PC07" x="15.24" y="15.24" length="middle" rot="R180"/>
<pin name="PC10" x="15.24" y="12.7" length="middle" rot="R180"/>
<pin name="PC11" x="15.24" y="10.16" length="middle" rot="R180"/>
<pin name="PC12" x="15.24" y="7.62" length="middle" rot="R180"/>
<pin name="PC13" x="15.24" y="5.08" length="middle" rot="R180"/>
<pin name="PC14" x="15.24" y="2.54" length="middle" rot="R180"/>
<pin name="PC15" x="15.24" y="0" length="middle" rot="R180"/>
<pin name="PC16" x="15.24" y="-2.54" length="middle" rot="R180"/>
<pin name="PC17" x="15.24" y="-5.08" length="middle" rot="R180"/>
<pin name="PC18" x="15.24" y="-7.62" length="middle" rot="R180"/>
<pin name="PC19" x="15.24" y="-10.16" length="middle" rot="R180"/>
<pin name="PC20" x="15.24" y="-12.7" length="middle" rot="R180"/>
<pin name="PC21" x="15.24" y="-15.24" length="middle" rot="R180"/>
<pin name="PC24" x="15.24" y="-17.78" length="middle" rot="R180"/>
<pin name="PC25" x="15.24" y="-20.32" length="middle" rot="R180"/>
<pin name="PC26" x="15.24" y="-22.86" length="middle" rot="R180"/>
<pin name="PC27" x="15.24" y="-25.4" length="middle" rot="R180"/>
<pin name="PC28" x="15.24" y="-27.94" length="middle" rot="R180"/>
<wire x1="0" y1="-30.48" x2="0" y2="33.02" width="0.254" layer="94"/>
<wire x1="0" y1="33.02" x2="10.16" y2="33.02" width="0.254" layer="94"/>
<wire x1="10.16" y1="33.02" x2="10.16" y2="-30.48" width="0.254" layer="94"/>
<wire x1="10.16" y1="-30.48" x2="0" y2="-30.48" width="0.254" layer="94"/>
<text x="0" y="35.56" size="1.27" layer="95" align="top-left">&gt;NAME</text>
<text x="10.16" y="-33.02" size="1.27" layer="96" align="bottom-right">&gt;VALUE</text>
</symbol>
<symbol name="ATSAME54N20A-PWR">
<pin name="GNDANA" x="17.78" y="-5.08" length="middle" rot="R180"/>
<pin name="VDDANA" x="-17.78" y="0" length="middle"/>
<pin name="GND" x="17.78" y="-2.54" length="middle" rot="R180"/>
<pin name="VDDIOB" x="-17.78" y="2.54" length="middle"/>
<pin name="VDDIO" x="-17.78" y="5.08" length="middle"/>
<pin name="RESETN" x="-17.78" y="-5.08" length="middle"/>
<pin name="VDDCORE" x="17.78" y="5.08" length="middle" rot="R180"/>
<pin name="VSW" x="17.78" y="2.54" length="middle" rot="R180"/>
<wire x1="-12.7" y1="-7.62" x2="-12.7" y2="7.62" width="0.254" layer="94"/>
<wire x1="-12.7" y1="7.62" x2="12.7" y2="7.62" width="0.254" layer="94"/>
<wire x1="12.7" y1="7.62" x2="12.7" y2="-7.62" width="0.254" layer="94"/>
<wire x1="12.7" y1="-7.62" x2="-12.7" y2="-7.62" width="0.254" layer="94"/>
<text x="-12.7" y="10.16" size="1.27" layer="95" rot="R180" align="bottom-right">&gt;NAME</text>
<text x="12.7" y="-10.16" size="1.27" layer="96" align="bottom-right">&gt;VALUE</text>
</symbol>
</symbols>
<devicesets>
<deviceset name="ATSAME54N20A" prefix="U">
<gates>
<gate name="-PORTA" symbol="ATSAME54N20A-PORTA" x="0" y="0"/>
<gate name="-PORTB" symbol="ATSAME54N20A-PORTB" x="25.4" y="2.54"/>
<gate name="-PORTC" symbol="ATSAME54N20A-PORTC" x="50.8" y="5.08"/>
<gate name="-PWR" symbol="ATSAME54N20A-PWR" x="-25.4" y="0"/>
</gates>
<devices>
<device name="" package="TQFP100">
<connects>
<connect gate="-PORTA" pin="PA00" pad="1"/>
<connect gate="-PORTA" pin="PA01" pad="2"/>
<connect gate="-PORTA" pin="PA02" pad="7"/>
<connect gate="-PORTA" pin="PA03" pad="8"/>
<connect gate="-PORTA" pin="PA04" pad="17"/>
<connect gate="-PORTA" pin="PA05" pad="18"/>
<connect gate="-PORTA" pin="PA06" pad="19"/>
<connect gate="-PORTA" pin="PA07" pad="20"/>
<connect gate="-PORTA" pin="PA08" pad="26"/>
<connect gate="-PORTA" pin="PA09" pad="27"/>
<connect gate="-PORTA" pin="PA10" pad="28"/>
<connect gate="-PORTA" pin="PA11" pad="29"/>
<connect gate="-PORTA" pin="PA12" pad="46"/>
<connect gate="-PORTA" pin="PA13" pad="47"/>
<connect gate="-PORTA" pin="PA14" pad="48"/>
<connect gate="-PORTA" pin="PA15" pad="49"/>
<connect gate="-PORTA" pin="PA16" pad="52"/>
<connect gate="-PORTA" pin="PA17" pad="53"/>
<connect gate="-PORTA" pin="PA18" pad="54"/>
<connect gate="-PORTA" pin="PA19" pad="55"/>
<connect gate="-PORTA" pin="PA20" pad="70"/>
<connect gate="-PORTA" pin="PA21" pad="71"/>
<connect gate="-PORTA" pin="PA22" pad="72"/>
<connect gate="-PORTA" pin="PA23" pad="73"/>
<connect gate="-PORTA" pin="PA24" pad="74"/>
<connect gate="-PORTA" pin="PA25" pad="75"/>
<connect gate="-PORTA" pin="PA27" pad="87"/>
<connect gate="-PORTA" pin="PA30" pad="93"/>
<connect gate="-PORTA" pin="PA31" pad="94"/>
<connect gate="-PORTB" pin="PB00" pad="97"/>
<connect gate="-PORTB" pin="PB01" pad="98"/>
<connect gate="-PORTB" pin="PB02" pad="99"/>
<connect gate="-PORTB" pin="PB03" pad="100"/>
<connect gate="-PORTB" pin="PB04" pad="9"/>
<connect gate="-PORTB" pin="PB05" pad="10"/>
<connect gate="-PORTB" pin="PB06" pad="13"/>
<connect gate="-PORTB" pin="PB07" pad="14"/>
<connect gate="-PORTB" pin="PB08" pad="15"/>
<connect gate="-PORTB" pin="PB09" pad="16"/>
<connect gate="-PORTB" pin="PB10" pad="32"/>
<connect gate="-PORTB" pin="PB11" pad="33"/>
<connect gate="-PORTB" pin="PB12" pad="34"/>
<connect gate="-PORTB" pin="PB13" pad="35"/>
<connect gate="-PORTB" pin="PB14" pad="36"/>
<connect gate="-PORTB" pin="PB15" pad="37"/>
<connect gate="-PORTB" pin="PB16" pad="64"/>
<connect gate="-PORTB" pin="PB17" pad="65"/>
<connect gate="-PORTB" pin="PB18" pad="66"/>
<connect gate="-PORTB" pin="PB19" pad="67"/>
<connect gate="-PORTB" pin="PB20" pad="68"/>
<connect gate="-PORTB" pin="PB21" pad="69"/>
<connect gate="-PORTB" pin="PB22" pad="78"/>
<connect gate="-PORTB" pin="PB23" pad="79"/>
<connect gate="-PORTB" pin="PB24" pad="80"/>
<connect gate="-PORTB" pin="PB25" pad="81"/>
<connect gate="-PORTB" pin="PB30" pad="95"/>
<connect gate="-PORTB" pin="PB31" pad="96"/>
<connect gate="-PORTC" pin="PC00" pad="3"/>
<connect gate="-PORTC" pin="PC01" pad="4"/>
<connect gate="-PORTC" pin="PC02" pad="5"/>
<connect gate="-PORTC" pin="PC03" pad="6"/>
<connect gate="-PORTC" pin="PC05" pad="21"/>
<connect gate="-PORTC" pin="PC06" pad="22"/>
<connect gate="-PORTC" pin="PC07" pad="23"/>
<connect gate="-PORTC" pin="PC10" pad="40"/>
<connect gate="-PORTC" pin="PC11" pad="41"/>
<connect gate="-PORTC" pin="PC12" pad="42"/>
<connect gate="-PORTC" pin="PC13" pad="43"/>
<connect gate="-PORTC" pin="PC14" pad="44"/>
<connect gate="-PORTC" pin="PC15" pad="45"/>
<connect gate="-PORTC" pin="PC16" pad="56"/>
<connect gate="-PORTC" pin="PC17" pad="57"/>
<connect gate="-PORTC" pin="PC18" pad="58"/>
<connect gate="-PORTC" pin="PC19" pad="59"/>
<connect gate="-PORTC" pin="PC20" pad="60"/>
<connect gate="-PORTC" pin="PC21" pad="61"/>
<connect gate="-PORTC" pin="PC24" pad="82"/>
<connect gate="-PORTC" pin="PC25" pad="83"/>
<connect gate="-PORTC" pin="PC26" pad="84"/>
<connect gate="-PORTC" pin="PC27" pad="85"/>
<connect gate="-PORTC" pin="PC28" pad="86"/>
<connect gate="-PWR" pin="GND" pad="24 31 38 50 62 76 90"/>
<connect gate="-PWR" pin="GNDANA" pad="11"/>
<connect gate="-PWR" pin="RESETN" pad="88"/>
<connect gate="-PWR" pin="VDDANA" pad="12"/>
<connect gate="-PWR" pin="VDDCORE" pad="89"/>
<connect gate="-PWR" pin="VDDIO" pad="39 51 63 77 92"/>
<connect gate="-PWR" pin="VDDIOB" pad="25 30"/>
<connect gate="-PWR" pin="VSW" pad="91"/>
</connects>
<technologies>
<technology name=""/>
</technologies>
</device>
</devices>
</deviceset>
</devicesets>
</library>
</drawing>
</eagle>
